
parent_material = "core/stingray_renderer/shader_import/standard"
variables = {
	base_color = {
		type = "vector3"
		value = [0.5882353 0.5882353 0.5882353]
	}
	emissive = {
		type = "vector3"
		value = [0 0 0]
	}
	emissive_intensity = {
		type = "scalar"
		value = 0
	}
	metallic = {
		type = "scalar"
		value = 0
	}
	roughness = {
		type = "scalar"
		value = 0.8999997
	}
}